Workflow customisation and extension • metaboWorkflows
…
Inspecting a workflow

When modifying a workflow, it is essential to properly inspect the resulting pipeline, due to the interdependence of the workflow targets, The package contains a number of tools based on those available in the targets package, that facilitate the user to inspect workflow definitions prior to project generation.

A tibble of the containing information about the targets within a workflow definition can be returned using:

manifest(workflow_definition)
#> # A tibble: 42 × 3
#>    name                                    command                     pattern  
#>    <chr>                                   <chr>                       <chr>    
#>  1 correlations_parameters                 "metabolyseR::analysisPara… <NA>     
#>  2 molecular_formula_assignment_parameters "MFassign::assignmentParam… <NA>     
#>  3 sample_information_file                 "\"data/runinfo.csv\""      <NA>     
#>  4 file_paths_list                         "\"data/file_paths.txt\""   <NA>     
#>  5 sample_information                      "readr::read_csv(sample_in… <NA>     
#>  6 mzML_files                              "readLines(file_paths_list… <NA>     
#>  7 mzML                                    "mzML_files"                map(mzML…
#>  8 spectral_processing_parameters          "binneR::detectParameters(… <NA>     
#>  9 spectral_processed                      "binneR::binneRlyse(mzML, … <NA>     
#> 10 plot_TIC                                "binneR::plotTIC(spectral_… <NA>     
#> # … with 32 more rows
…
