Workflow definition target information — manifest • metaboWorkflows
…
    Examples

file_paths <- metaboData::filePaths('FIE-HRMS','BdistachyonEcotypes')
sample_information <- metaboData::runinfo('FIE-HRMS','BdistachyonEcotypes')

workflow_input <- inputFilePath(file_paths,sample_information)

workflow_definition <- defineWorkflow(workflow_input,
                                      'FIE-HRMS fingerprinting',
                                      'Example project')
                 
manifest(workflow_definition)
#> # A tibble: 42 × 3
#>    name                                    command                     pattern  
#>    <chr>                                   <chr>                       <chr>    
#>  1 correlations_parameters                 "metabolyseR::analysisPara… NA       
#>  2 molecular_formula_assignment_parameters "MFassign::assignmentParam… NA       
#>  3 sample_information_file                 "\"data/runinfo.csv\""      NA       
#>  4 file_paths_list                         "\"data/file_paths.txt\""   NA       
#>  5 sample_information                      "readr::read_csv(sample_in… NA       
#>  6 mzML_files                              "readLines(file_paths_list… NA       
#>  7 mzML                                    "mzML_files"                map(mzML…
#>  8 spectral_processing_parameters          "binneR::detectParameters(… NA       
#>  9 spectral_processed                      "binneR::binneRlyse(mzML, … NA       
#> 10 plot_TIC                                "binneR::plotTIC(spectral_… NA       
#> # … with 32 more rows
…
