Workflow customisation and extension • metaboWorkflows
…
Inspecting a workflow

When modifying a workflow, it is essential to properly inspect the resulting pipeline, due to the interdependence of the workflow targets, The package contains a number of tools based on those available in the targets package, that facilitate the user to inspect workflow definitions prior to project generation.

A tibble of the containing information about the targets within a workflow definition can be returned using:

manifest(workflow_definition)
#> # A tibble: 42 × 3
#>    name                                    command                       pattern
#>    <chr>                                   <chr>                         <chr>  
#>  1 parameters_correlations                 "metabolyseR::analysisParame… NA     
#>  2 parameters_molecular_formula_assignment "MFassign::assignmentParamet… NA     
#>  3 sample_information_file                 "\"data/runinfo.csv\""        NA     
#>  4 file_paths_list                         "\"data/file_paths.txt\""     NA     
#>  5 sample_information                      "readr::read_csv(sample_info… NA     
#>  6 mzML_files                              "readLines(file_paths_list)"  NA     
#>  7 mzML                                    "mzML_files"                  map(mz…
#>  8 parameters_spectral_processing          "binneR::detectParameters(mz… NA     
#>  9 results_spectral_processing             "binneR::binneRlyse(mzML, sa… NA     
#> 10 plot_TIC                                "binneR::plotTIC(results_spe… NA     
#> # … with 32 more rows
…
